Misc/Signals/Challenge/Public/signals.vcd
$version Generated by Wokwi.com $end
$date Sun, 29 Jan 2023 19:08:55 GMT $end
$timescale 1ns $end
$scope module logic $end
$var wire 1 ! D0 $end
$var wire 1 " D1 $end
$var wire 1 # D2 $end
$var wire 1 $ D3 $end
$var wire 1 % D4 $end
$var wire 1 & D5 $end
$var wire 1 ' D6 $end
$var wire 1 ( D7 $end
$upscope $end
$enddefinitions $end
#0
0!
#0
0"
#0
0#
#0
0$
#0
0%
#0
0&
#0
0'
#0
0(
#45045775
1!
#58074175
0!
#77696425
1&
#87696175
0&
#107696425
1#
#117696175
0#
#137696425
1(
#147696175
0(
#167696425
1%
#177696175
0%
#197696425
1"
#207696175
0"
#227696425
1'
#237696175
0'
#257696425
1$
#267696175
0$
#287739425
1&
#287746675
1'
#287751925
1$
#387701675
0&
#387727300
0'
#387732425
0$
#487697800
1&
#487703550
1(
#487709800
1'
#487715050
1$
#587701675
0&
#587711925
0(
#587727300
0'
#587732425
0$
#687697800
1&
#687705050
1'
#687710300
1$
#787701675
0&
#787727300
0'
#787732425
0$
#887697800
1&
#887703050
1#
#887708300
1(
#887713550
1%
#887719300
1'
#887724550
1$
#987701675
0&
#987706800
0#
#987711925
0(
#987717050
0%
#987727300
0'
#987732425
0$
#1087697800
1&
#1087703050
1#
#1087709300
1"
#1087715050
1$
#1187701675
0&
#1187706800
0#
#1187722175
0"
#1187732425
0$
#1287697800
1&
#1287703050
1#
#1287708800
1%
#1287714050
1"
#1387701675
0&
#1387706800
0#
#1387717050
0%
#1387722175
0"
#1487698300
1#
#1487703550
1(
#1487709800
1'
#1487715050
1$
#1587706800
0#
#1587711925
0(
#1587727300
0'
#1587732425
0$
#1687697800
1&
#1687703050
1#
#1687709800
1'
#1687715050
1$
#1787701675
0&
#1787706800
0#
#1787727300
0'
#1787732425
0$
#1887697800
1&
#1887703050
1#
#1887708300
1(
#1887714050
1"
#1987701675
0&
#1987706800
0#
#1987711925
0(
#1987722175
0"
#2087697800
1&
#2087703050
1#
#2087708300
1(
#2087714550
1'
#2187701675
0&
#2187706800
0#
#2187711925
0(
#2187727300
0'
#2287697800
1&
#2287703050
1#
#2287708800
1%
#2287714050
1"
#2287719300
1'
#2287724550
1$
#2387701675
0&
#2387706800
0#
#2387717050
0%
#2387722175
0"
#2387727300
0'
#2387732425
0$
#2487697800
1&
#2487703050
1#
#2487708800
1%
#2487714050
1"
#2487719300
1'
#2587701675
0&
#2587706800
0#
#2587717050
0%
#2587722175
0"
#2587727300
0'
#2687698300
1#
#2687703550
1(
#2687710300
1$
#2787706800
0#
#2787711925
0(
#2787732425
0$
#2887697800
1&
#2887703050
1#
#2887709800
1'
#2887715050
1$
#2987701675
0&
#2987706800
0#
#2987727300
0'
#2987732425
0$
#3087697800
1&
#3087703550
1(
#3087708800
1%
#3087714050
1"
#3087719300
1'
#3087724550
1$
#3187701675
0&
#3187711925
0(
#3187717050
0%
#3187722175
0"
#3187727300
0'
#3187732425
0$
#3287698300
1#
#3287703550
1(
#3287710300
1$
#3387706800
0#
#3387711925
0(
#3387732425
0$
#3487697800
1&
#3487703050
1#
#3487708300
1(
#3487714550
1'
#3487719800
1$
#3587701675
0&
#3587706800
0#
#3587711925
0(
#3587727300
0'
#3587732425
0$
#3687697800
1&
#3687703550
1(
#3687708800
1%
#3687714050
1"
#3687719300
1'
#3687724550
1$
#3787701675
0&
#3787711925
0(
#3787717050
0%
#3787722175
0"
#3787727300
0'
#3787732425
0$
#3887697800
1&
#3887703050
1#
#3887709300
1"
#3887714550
1'
#3987701675
0&
#3987706800
0#
#3987722175
0"
#3987727300
0'
#4087697800
1&
#4087703550
1(
#4087709300
1"
#4087715050
1$
#4187701675
0&
#4187711925
0(
#4187722175
0"
#4187732425
0$
#4287697800
1&
#4287703050
1#
#4287708800
1%
#4287714050
1"
#4287719300
1'
#4387701675
0&
#4387706800
0#
#4387717050
0%
#4387722175
0"
#4387727300
0'
#4487698300
1#
#4487705550
1$
#4587706800
0#
#4587732425
0$
#4687697800
1&
#4687703050
1#
#4687708300
1(
#4687713550
1%
#4687718800
1"
#4687724550
1$
#4787701675
0&
#4787706800
0#
#4787711925
0(
#4787717050
0%
#4787722175
0"
#4787732425
0$
#5187696550
1!
#5187701425
1&
#5187706300
1#
#5187711175
1(
#5187716050
1%
#5187720925
1"
#5187725800
1'
#5187730675
1$
#6404931087
1!
